<?xml version="1.0" standalone="no"?>
<!DOCTYPE svg PUBLIC "-//W3C//DTD SVG 1.1//EN" "http://www.w3.org/Graphics/SVG/1.1/DTD/svg11.dtd">
<svg xmlns="http://www.w3.org/2000/svg">
<metadata>Copyright (C) 2017 by original authors @ fontello.com</metadata>
<defs>
<font id="fontello" horiz-adv-x="1000" >
<font-face font-family="fontello" font-weight="400" font-stretch="normal" units-per-em="1000" ascent="850" descent="-150" />
<missing-glyph horiz-adv-x="1000" />
<glyph glyph-name="cancel-circled2" unicode="&#xe800;" d="M612 248l-81-82q-6-5-13-5t-13 5l-76 77-77-77q-5-5-13-5t-12 5l-82 82q-6 6-6 13t6 13l76 76-76 77q-6 5-6 12t6 13l82 82q5 5 12 5t13-5l77-77 76 77q6 5 13 5t13-5l81-82q6-5 6-13t-6-12l-76-77 76-76q6-6 6-13t-6-13z m120 102q0 83-41 152t-110 111-152 41-153-41-110-111-41-152 41-152 110-111 153-41 152 41 110 111 41 152z m125 0q0-117-57-215t-156-156-215-58-216 58-155 156-58 215 58 215 155 156 216 58 215-58 156-156 57-215z" horiz-adv-x="857.1" />

<glyph glyph-name="thumbs-up" unicode="&#xe801;" d="M811 470q38-13 58-51t15-77l-35-312q-6-39-32-70t-58-44q-5-1-26-9t-29-11-30-7-45-6-56-2q-83 0-174 26t-130 56q-1 1-3 2t-4 4-3 4q-46-40-103-40-65 0-110 45t-46 111l0 313q0 65 46 110t110 46q77 0 124-63 44 44 64 85t21 108q0 54 38 92t92 39 92-39 38-92q0-94-16-188 170-17 202-30z m-655-432q22 0 37 15t16 36l0 313q0 21-16 36t-37 16-37-16-15-36l0-313q0-21 15-36t37-15z m590 7l35 312q3 12-6 16-15 4-107 15t-119 14l-69-10 16 73q25 117 25 223 0 10-8 18t-18 8-18-8-8-18q0-54-11-98t-32-78-37-51-40-43q-36-36-36-69l0-260q0-30 18-44 24-17 99-38t143-22q26 0 45 1t35 5 23 5 23 9 24 9q6 3 14 13t9 18z" horiz-adv-x="885" />
</font>
</defs>
</svg>